Tidying and exporting data, reproducing figures
…
## Answer 2
rich_time %>%
  gather(year, n_genera, -plot_id)

## # A tibble: 624 x 3
## # Groups:   plot_id [24]
##    plot_id year  n_genera
##      <dbl> <chr>    <int>
##  1       1 1977         2
##  2       2 1977         6
##  3       3 1977         5
##  4       4 1977         4
##  5       5 1977         4
##  6       6 1977         3
##  7       7 1977         3
##  8       8 1977         2
##  9       9 1977         3
## 10      10 1977         1
## # … with 614 more rows

## Answer 3
surveys_long <- surveys %>%
  gather(measurement, value, hindfoot_length, weight)

## Answer 4
surveys_long %>%
  group_by(year, measurement, plot_type) %>%
  summarize(mean_value = mean(value, na.rm=TRUE)) %>%
  spread(measurement, mean_value)

## # A tibble: 130 x 4
## # Groups:   year [26]
##     year plot_type                 hindfoot_length weight
##    <dbl> <chr>                               <dbl>  <dbl>
##  1  1977 Control                              36.1   50.4
##  2  1977 Long-term Krat Exclosure             33.7   34.8
##  3  1977 Rodent Exclosure                     39.1   48.2
##  4  1977 Short-term Krat Exclosure            35.8   41.3
##  5  1977 Spectab exclosure                    37.2   47.1
##  6  1978 Control                              38.1   70.8
##  7  1978 Long-term Krat Exclosure             22.6   35.9
##  8  1978 Rodent Exclosure                     37.8   67.3
##  9  1978 Short-term Krat Exclosure            36.9   63.8
## 10  1978 Spectab exclosure                    42.3   80.1
## # … with 120 more rows
…
# Install if needed
# install.packages('tidyverse')
library(tidyverse)

1. Explore the weight and hindfoot trends further

Load the data we saved in the previous lesson.

# Download if needed
# download.file("https://ndownloader.figshare.com/files/2292169", "data/portal_data.csv")
surveys <- read_csv('portal_data.csv')

surveys

## # A tibble: 34,786 x 13
##    record_id month   day  year plot_id species_id sex   hindfoot_length
##        <dbl> <dbl> <dbl> <dbl>   <dbl> <chr>      <chr>           <dbl>
##  1         1     7    16  1977       2 NL         M                  32
##  2        72     8    19  1977       2 NL         M                  31
##  3       224     9    13  1977       2 NL         <NA>               NA
##  4       266    10    16  1977       2 NL         <NA>               NA
##  5       349    11    12  1977       2 NL         <NA>               NA
##  6       363    11    12  1977       2 NL         <NA>               NA
##  7       435    12    10  1977       2 NL         <NA>               NA
##  8       506     1     8  1978       2 NL         <NA>               NA
##  9       588     2    18  1978       2 NL         M                  NA
## 10       661     3    11  1978       2 NL         <NA>               NA
## # … with 34,776 more rows, and 5 more variables: weight <dbl>,
## #   genus <chr>, species <chr>, taxa <chr>, plot_type <chr>
…
